…
``` r
# Add surrogate variables to model and estimate pvalues
modSV = cbind(mod, svobj$sv)
mod0SV = cbind(mod0, svobj$sv)
# Calc fstatistics
pValuesSv = f.pvalue(t(scaledFeatMatrix), modSV, mod0SV)
qValuesSv = sort(p.adjust(pValuesSv, method="BH"))

sv_qval = tibble(mass = as.numeric(names(qValuesSv)), q_val = qValuesSv)
sv_qval %>% filter(q_val < 0.05)
```

    ## # A tibble: 73 × 2
    ##     mass        q_val
    ##    <dbl>        <dbl>
    ##  1 1505. 0.0000000171
    ##  2 3095. 0.0000112   
    ##  3 1300. 0.0000130   
    ##  4 1504. 0.0000130   
    ##  5 3097. 0.0000167   
    ##  6 3094. 0.0000167   
    ##  7 3095. 0.0000167   
    ##  8 3093. 0.0000620   
    ##  9 1504. 0.0000719   
    ## 10 3097. 0.0000719   
    ## # … with 63 more rows
…
